<?xml version="1.0" encoding="UTF-8" standalone="no"?>
<!DOCTYPE svg PUBLIC "-//W3C//DTD SVG 1.1//EN"
 "http://www.w3.org/Graphics/SVG/1.1/DTD/svg11.dtd">
<!-- Generated by graphviz version 2.43.0 (0)
 -->
<!-- Title: %3 Pages: 1 -->
<svg width="1707pt" height="260pt"
 viewBox="0.00 0.00 1707.00 260.00" xmlns="http://www.w3.org/2000/svg" xmlns:xlink="http://www.w3.org/1999/xlink">
<g id="graph0" class="graph" transform="scale(1 1) rotate(0) translate(4 256)">
<title>%3</title>
<polygon fill="white" stroke="transparent" points="-4,4 -4,-256 1703,-256 1703,4 -4,4"/>
<!-- [root] aws_route.peer_vpc_cidr_propagation (expand) -->
<g id="node1" class="node">
<title>[root] aws_route.peer_vpc_cidr_propagation (expand)</title>
<polygon fill="none" stroke="black" points="1382.5,-108 1097.5,-108 1097.5,-72 1382.5,-72 1382.5,-108"/>
<text text-anchor="middle" x="1240" y="-86.3" font-family="Times,serif" font-size="14.00">aws_route.peer_vpc_cidr_propagation</text>
</g>
<!-- [root] provider[&quot;registry.terraform.io/hashicorp/aws&quot;] -->
<g id="node3" class="node">
<title>[root] provider[&quot;registry.terraform.io/hashicorp/aws&quot;]</title>
<polygon fill="none" stroke="black" points="797,-36 471.74,-18 797,0 1122.26,-18 797,-36"/>
<text text-anchor="middle" x="797" y="-14.3" font-family="Times,serif" font-size="14.00">provider[&quot;registry.terraform.io/hashicorp/aws&quot;]</text>
</g>
<!-- [root] aws_route.peer_vpc_cidr_propagation (expand)&#45;&gt;[root] provider[&quot;registry.terraform.io/hashicorp/aws&quot;] -->
<g id="edge1" class="edge">
<title>[root] aws_route.peer_vpc_cidr_propagation (expand)&#45;&gt;[root] provider[&quot;registry.terraform.io/hashicorp/aws&quot;]</title>
<path fill="none" stroke="black" d="M1132.2,-71.97C1057.13,-60.1 958.17,-44.47 887.27,-33.26"/>
<polygon fill="black" stroke="black" points="887.44,-29.75 877.01,-31.64 886.35,-36.66 887.44,-29.75"/>
</g>
<!-- [root] var.PEER_VPC_CIDR -->
<g id="node4" class="node">
<title>[root] var.PEER_VPC_CIDR</title>
<polygon fill="none" stroke="black" points="1490.5,-36 1331.5,-36 1331.5,0 1496.5,0 1496.5,-30 1490.5,-36"/>
<polyline fill="none" stroke="black" points="1490.5,-36 1490.5,-30 "/>
<polyline fill="none" stroke="black" points="1496.5,-30 1490.5,-30 "/>
<text text-anchor="middle" x="1414" y="-14.3" font-family="Times,serif" font-size="14.00">var.PEER_VPC_CIDR</text>
</g>
<!-- [root] aws_route.peer_vpc_cidr_propagation (expand)&#45;&gt;[root] var.PEER_VPC_CIDR -->
<g id="edge2" class="edge">
<title>[root] aws_route.peer_vpc_cidr_propagation (expand)&#45;&gt;[root] var.PEER_VPC_CIDR</title>
<path fill="none" stroke="black" d="M1282.57,-71.88C1306.56,-62.22 1336.73,-50.09 1362.1,-39.88"/>
<polygon fill="black" stroke="black" points="1363.6,-43.05 1371.57,-36.07 1360.99,-36.55 1363.6,-43.05"/>
</g>
<!-- [root] var.ROUTE_TABLE_IDS -->
<g id="node7" class="node">
<title>[root] var.ROUTE_TABLE_IDS</title>
<polygon fill="none" stroke="black" points="1693,-36 1515,-36 1515,0 1699,0 1699,-30 1693,-36"/>
<polyline fill="none" stroke="black" points="1693,-36 1693,-30 "/>
<polyline fill="none" stroke="black" points="1699,-30 1693,-30 "/>
<text text-anchor="middle" x="1607" y="-14.3" font-family="Times,serif" font-size="14.00">var.ROUTE_TABLE_IDS</text>
</g>
<!-- [root] aws_route.peer_vpc_cidr_propagation (expand)&#45;&gt;[root] var.ROUTE_TABLE_IDS -->
<g id="edge3" class="edge">
<title>[root] aws_route.peer_vpc_cidr_propagation (expand)&#45;&gt;[root] var.ROUTE_TABLE_IDS</title>
<path fill="none" stroke="black" d="M1329.31,-71.97C1383.25,-61.68 1452.09,-48.55 1507.74,-37.93"/>
<polygon fill="black" stroke="black" points="1508.44,-41.36 1517.61,-36.05 1507.13,-34.49 1508.44,-41.36"/>
</g>
<!-- [root] var.VPC_PEERING_ID -->
<g id="node8" class="node">
<title>[root] var.VPC_PEERING_ID</title>
<polygon fill="none" stroke="black" points="1307.5,-36 1140.5,-36 1140.5,0 1313.5,0 1313.5,-30 1307.5,-36"/>
<polyline fill="none" stroke="black" points="1307.5,-36 1307.5,-30 "/>
<polyline fill="none" stroke="black" points="1313.5,-30 1307.5,-30 "/>
<text text-anchor="middle" x="1227" y="-14.3" font-family="Times,serif" font-size="14.00">var.VPC_PEERING_ID</text>
</g>
<!-- [root] aws_route.peer_vpc_cidr_propagation (expand)&#45;&gt;[root] var.VPC_PEERING_ID -->
<g id="edge4" class="edge">
<title>[root] aws_route.peer_vpc_cidr_propagation (expand)&#45;&gt;[root] var.VPC_PEERING_ID</title>
<path fill="none" stroke="black" d="M1236.79,-71.7C1235.35,-63.98 1233.63,-54.71 1232.04,-46.11"/>
<polygon fill="black" stroke="black" points="1235.44,-45.3 1230.18,-36.1 1228.56,-46.58 1235.44,-45.3"/>
</g>
<!-- [root] aws_vpc_peering_connection_options.peer_connection_options (expand) -->
<g id="node2" class="node">
<title>[root] aws_vpc_peering_connection_options.peer_connection_options (expand)</title>
<polygon fill="none" stroke="black" points="1001.5,-108 540.5,-108 540.5,-72 1001.5,-72 1001.5,-108"/>
<text text-anchor="middle" x="771" y="-86.3" font-family="Times,serif" font-size="14.00">aws_vpc_peering_connection_options.peer_connection_options</text>
</g>
<!-- [root] aws_vpc_peering_connection_options.peer_connection_options (expand)&#45;&gt;[root] provider[&quot;registry.terraform.io/hashicorp/aws&quot;] -->
<g id="edge5" class="edge">
<title>[root] aws_vpc_peering_connection_options.peer_connection_options (expand)&#45;&gt;[root] provider[&quot;registry.terraform.io/hashicorp/aws&quot;]</title>
<path fill="none" stroke="black" d="M777.43,-71.7C780.36,-63.81 783.89,-54.3 787.14,-45.55"/>
<polygon fill="black" stroke="black" points="790.45,-46.7 790.65,-36.1 783.88,-44.26 790.45,-46.7"/>
</g>
<!-- [root] var.PEER_VPC_ID -->
<g id="node5" class="node">
<title>[root] var.PEER_VPC_ID</title>
<polygon fill="none" stroke="black" points="138,-36 0,-36 0,0 144,0 144,-30 138,-36"/>
<polyline fill="none" stroke="black" points="138,-36 138,-30 "/>
<polyline fill="none" stroke="black" points="144,-30 138,-30 "/>
<text text-anchor="middle" x="72" y="-14.3" font-family="Times,serif" font-size="14.00">var.PEER_VPC_ID</text>
</g>
<!-- [root] aws_vpc_peering_connection_options.peer_connection_options (expand)&#45;&gt;[root] var.PEER_VPC_ID -->
<g id="edge6" class="edge">
<title>[root] aws_vpc_peering_connection_options.peer_connection_options (expand)&#45;&gt;[root] var.PEER_VPC_ID</title>
<path fill="none" stroke="black" d="M540.22,-75.88C426.57,-67.77 287.42,-55.39 154.33,-36.1"/>
<polygon fill="black" stroke="black" points="154.75,-32.62 144.35,-34.64 153.73,-39.55 154.75,-32.62"/>
</g>
<!-- [root] var.REMOTE_VPC_DNS_RESOLUTION -->
<g id="node6" class="node">
<title>[root] var.REMOTE_VPC_DNS_RESOLUTION</title>
<polygon fill="none" stroke="black" points="448,-36 162,-36 162,0 454,0 454,-30 448,-36"/>
<polyline fill="none" stroke="black" points="448,-36 448,-30 "/>
<polyline fill="none" stroke="black" points="454,-30 448,-30 "/>
<text text-anchor="middle" x="308" y="-14.3" font-family="Times,serif" font-size="14.00">var.REMOTE_VPC_DNS_RESOLUTION</text>
</g>
<!-- [root] aws_vpc_peering_connection_options.peer_connection_options (expand)&#45;&gt;[root] var.REMOTE_VPC_DNS_RESOLUTION -->
<g id="edge7" class="edge">
<title>[root] aws_vpc_peering_connection_options.peer_connection_options (expand)&#45;&gt;[root] var.REMOTE_VPC_DNS_RESOLUTION</title>
<path fill="none" stroke="black" d="M658.33,-71.97C589.57,-61.57 501.63,-48.27 431.06,-37.6"/>
<polygon fill="black" stroke="black" points="431.18,-34.08 420.77,-36.05 430.14,-41.01 431.18,-34.08"/>
</g>
<!-- [root] aws_vpc_peering_connection_options.peer_connection_options (expand)&#45;&gt;[root] var.VPC_PEERING_ID -->
<g id="edge8" class="edge">
<title>[root] aws_vpc_peering_connection_options.peer_connection_options (expand)&#45;&gt;[root] var.VPC_PEERING_ID</title>
<path fill="none" stroke="black" d="M892.78,-71.97C959.93,-62.36 1045.04,-49.84 1130.29,-36.09"/>
<polygon fill="black" stroke="black" points="1131.1,-39.5 1140.41,-34.45 1129.98,-32.59 1131.1,-39.5"/>
</g>
<!-- [root] meta.count&#45;boundary (EachMode fixup) -->
<g id="node9" class="node">
<title>[root] meta.count&#45;boundary (EachMode fixup)</title>
<ellipse fill="none" stroke="black" cx="720" cy="-162" rx="222.86" ry="18"/>
<text text-anchor="middle" x="720" y="-158.3" font-family="Times,serif" font-size="14.00">[root] meta.count&#45;boundary (EachMode fixup)</text>
</g>
<!-- [root] meta.count&#45;boundary (EachMode fixup)&#45;&gt;[root] aws_route.peer_vpc_cidr_propagation (expand) -->
<g id="edge9" class="edge">
<title>[root] meta.count&#45;boundary (EachMode fixup)&#45;&gt;[root] aws_route.peer_vpc_cidr_propagation (expand)</title>
<path fill="none" stroke="black" d="M829.33,-146.28C909.13,-135.54 1017.85,-120.9 1103.38,-109.39"/>
<polygon fill="black" stroke="black" points="1103.99,-112.84 1113.43,-108.04 1103.05,-105.9 1103.99,-112.84"/>
</g>
<!-- [root] meta.count&#45;boundary (EachMode fixup)&#45;&gt;[root] aws_vpc_peering_connection_options.peer_connection_options (expand) -->
<g id="edge10" class="edge">
<title>[root] meta.count&#45;boundary (EachMode fixup)&#45;&gt;[root] aws_vpc_peering_connection_options.peer_connection_options (expand)</title>
<path fill="none" stroke="black" d="M732.61,-143.7C738.6,-135.47 745.88,-125.48 752.48,-116.42"/>
<polygon fill="black" stroke="black" points="755.48,-118.25 758.54,-108.1 749.82,-114.13 755.48,-118.25"/>
</g>
<!-- [root] provider[&quot;registry.terraform.io/hashicorp/aws&quot;] (close) -->
<g id="node10" class="node">
<title>[root] provider[&quot;registry.terraform.io/hashicorp/aws&quot;] (close)</title>
<ellipse fill="none" stroke="black" cx="1253" cy="-162" rx="291.65" ry="18"/>
<text text-anchor="middle" x="1253" y="-158.3" font-family="Times,serif" font-size="14.00">[root] provider[&quot;registry.terraform.io/hashicorp/aws&quot;] (close)</text>
</g>
<!-- [root] provider[&quot;registry.terraform.io/hashicorp/aws&quot;] (close)&#45;&gt;[root] aws_route.peer_vpc_cidr_propagation (expand) -->
<g id="edge11" class="edge">
<title>[root] provider[&quot;registry.terraform.io/hashicorp/aws&quot;] (close)&#45;&gt;[root] aws_route.peer_vpc_cidr_propagation (expand)</title>
<path fill="none" stroke="black" d="M1249.79,-143.7C1248.35,-135.98 1246.63,-126.71 1245.04,-118.11"/>
<polygon fill="black" stroke="black" points="1248.44,-117.3 1243.18,-108.1 1241.56,-118.58 1248.44,-117.3"/>
</g>
<!-- [root] provider[&quot;registry.terraform.io/hashicorp/aws&quot;] (close)&#45;&gt;[root] aws_vpc_peering_connection_options.peer_connection_options (expand) -->
<g id="edge12" class="edge">
<title>[root] provider[&quot;registry.terraform.io/hashicorp/aws&quot;] (close)&#45;&gt;[root] aws_vpc_peering_connection_options.peer_connection_options (expand)</title>
<path fill="none" stroke="black" d="M1144.53,-145.25C1071.6,-134.66 975.17,-120.65 898.56,-109.53"/>
<polygon fill="black" stroke="black" points="898.76,-106.02 888.36,-108.04 897.76,-112.95 898.76,-106.02"/>
</g>
<!-- [root] root -->
<g id="node11" class="node">
<title>[root] root</title>
<ellipse fill="none" stroke="black" cx="986" cy="-234" rx="58.49" ry="18"/>
<text text-anchor="middle" x="986" y="-230.3" font-family="Times,serif" font-size="14.00">[root] root</text>
</g>
<!-- [root] root&#45;&gt;[root] meta.count&#45;boundary (EachMode fixup) -->
<g id="edge13" class="edge">
<title>[root] root&#45;&gt;[root] meta.count&#45;boundary (EachMode fixup)</title>
<path fill="none" stroke="black" d="M942.97,-221.68C902.25,-210.96 840.35,-194.67 792.1,-181.97"/>
<polygon fill="black" stroke="black" points="792.89,-178.56 782.33,-179.4 791.11,-185.33 792.89,-178.56"/>
</g>
<!-- [root] root&#45;&gt;[root] provider[&quot;registry.terraform.io/hashicorp/aws&quot;] (close) -->
<g id="edge14" class="edge">
<title>[root] root&#45;&gt;[root] provider[&quot;registry.terraform.io/hashicorp/aws&quot;] (close)</title>
<path fill="none" stroke="black" d="M1028.9,-221.75C1069.51,-211.11 1131.31,-194.9 1179.73,-182.21"/>
<polygon fill="black" stroke="black" points="1180.75,-185.56 1189.54,-179.64 1178.98,-178.79 1180.75,-185.56"/>
</g>
</g>
</svg>
