<?xml version="1.0" encoding="UTF-8" standalone="no"?>
<!DOCTYPE svg PUBLIC "-//W3C//DTD SVG 1.1//EN"
 "http://www.w3.org/Graphics/SVG/1.1/DTD/svg11.dtd">
<!-- Generated by graphviz version 2.43.0 (0)
 -->
<!-- Title: %3 Pages: 1 -->
<svg width="3550pt" height="548pt"
 viewBox="0.00 0.00 3549.96 548.00" xmlns="http://www.w3.org/2000/svg" xmlns:xlink="http://www.w3.org/1999/xlink">
<g id="graph0" class="graph" transform="scale(1 1) rotate(0) translate(4 544)">
<title>%3</title>
<polygon fill="white" stroke="transparent" points="-4,4 -4,-544 3545.96,-544 3545.96,4 -4,4"/>
<!-- [root] aws_cloudwatch_log_group.vpn_log_group (expand) -->
<g id="node1" class="node">
<title>[root] aws_cloudwatch_log_group.vpn_log_group (expand)</title>
<polygon fill="none" stroke="black" points="743,-180 426,-180 426,-144 743,-144 743,-180"/>
<text text-anchor="middle" x="584.5" y="-158.3" font-family="Times,serif" font-size="14.00">aws_cloudwatch_log_group.vpn_log_group</text>
</g>
<!-- [root] provider[&quot;registry.terraform.io/hashicorp/aws&quot;] -->
<g id="node14" class="node">
<title>[root] provider[&quot;registry.terraform.io/hashicorp/aws&quot;]</title>
<polygon fill="none" stroke="black" points="1042.5,-108 717.24,-90 1042.5,-72 1367.76,-90 1042.5,-108"/>
<text text-anchor="middle" x="1042.5" y="-86.3" font-family="Times,serif" font-size="14.00">provider[&quot;registry.terraform.io/hashicorp/aws&quot;]</text>
</g>
<!-- [root] aws_cloudwatch_log_group.vpn_log_group (expand)&#45;&gt;[root] provider[&quot;registry.terraform.io/hashicorp/aws&quot;] -->
<g id="edge2" class="edge">
<title>[root] aws_cloudwatch_log_group.vpn_log_group (expand)&#45;&gt;[root] provider[&quot;registry.terraform.io/hashicorp/aws&quot;]</title>
<path fill="none" stroke="black" d="M695.95,-143.97C773.97,-132.04 876.96,-116.3 950.34,-105.09"/>
<polygon fill="black" stroke="black" points="951.14,-108.5 960.49,-103.53 950.08,-101.58 951.14,-108.5"/>
</g>
<!-- [root] var.LOG_RETENTION -->
<g id="node21" class="node">
<title>[root] var.LOG_RETENTION</title>
<polygon fill="none" stroke="black" points="693,-108 528,-108 528,-72 699,-72 699,-102 693,-108"/>
<polyline fill="none" stroke="black" points="693,-108 693,-102 "/>
<polyline fill="none" stroke="black" points="699,-102 693,-102 "/>
<text text-anchor="middle" x="613.5" y="-86.3" font-family="Times,serif" font-size="14.00">var.LOG_RETENTION</text>
</g>
<!-- [root] aws_cloudwatch_log_group.vpn_log_group (expand)&#45;&gt;[root] var.LOG_RETENTION -->
<g id="edge3" class="edge">
<title>[root] aws_cloudwatch_log_group.vpn_log_group (expand)&#45;&gt;[root] var.LOG_RETENTION</title>
<path fill="none" stroke="black" d="M591.67,-143.7C594.93,-135.81 598.87,-126.3 602.5,-117.55"/>
<polygon fill="black" stroke="black" points="605.82,-118.68 606.41,-108.1 599.35,-116 605.82,-118.68"/>
</g>
<!-- [root] var.SUFFIX -->
<g id="node25" class="node">
<title>[root] var.SUFFIX</title>
<polygon fill="none" stroke="black" points="93,-108 0,-108 0,-72 99,-72 99,-102 93,-108"/>
<polyline fill="none" stroke="black" points="93,-108 93,-102 "/>
<polyline fill="none" stroke="black" points="99,-102 93,-102 "/>
<text text-anchor="middle" x="49.5" y="-86.3" font-family="Times,serif" font-size="14.00">var.SUFFIX</text>
</g>
<!-- [root] aws_cloudwatch_log_group.vpn_log_group (expand)&#45;&gt;[root] var.SUFFIX -->
<g id="edge4" class="edge">
<title>[root] aws_cloudwatch_log_group.vpn_log_group (expand)&#45;&gt;[root] var.SUFFIX</title>
<path fill="none" stroke="black" d="M425.89,-150.12C335.56,-142.29 220.29,-129.55 109.29,-107.96"/>
<polygon fill="black" stroke="black" points="109.74,-104.48 99.25,-105.98 108.38,-111.35 109.74,-104.48"/>
</g>
<!-- [root] local.environment_name (expand) -->
<g id="node28" class="node">
<title>[root] local.environment_name (expand)</title>
<ellipse fill="none" stroke="black" cx="313.5" cy="-90" rx="196.07" ry="18"/>
<text text-anchor="middle" x="313.5" y="-86.3" font-family="Times,serif" font-size="14.00">[root] local.environment_name (expand)</text>
</g>
<!-- [root] aws_cloudwatch_log_group.vpn_log_group (expand)&#45;&gt;[root] local.environment_name (expand) -->
<g id="edge1" class="edge">
<title>[root] aws_cloudwatch_log_group.vpn_log_group (expand)&#45;&gt;[root] local.environment_name (expand)</title>
<path fill="none" stroke="black" d="M518.55,-143.97C478.37,-133.59 427,-120.32 385.73,-109.66"/>
<polygon fill="black" stroke="black" points="386.57,-106.26 376.01,-107.15 384.82,-113.04 386.57,-106.26"/>
</g>
<!-- [root] aws_cloudwatch_log_stream.vpn_log_stream (expand) -->
<g id="node2" class="node">
<title>[root] aws_cloudwatch_log_stream.vpn_log_stream (expand)</title>
<polygon fill="none" stroke="black" points="817.5,-252 483.5,-252 483.5,-216 817.5,-216 817.5,-252"/>
<text text-anchor="middle" x="650.5" y="-230.3" font-family="Times,serif" font-size="14.00">aws_cloudwatch_log_stream.vpn_log_stream</text>
</g>
<!-- [root] aws_cloudwatch_log_stream.vpn_log_stream (expand)&#45;&gt;[root] aws_cloudwatch_log_group.vpn_log_group (expand) -->
<g id="edge5" class="edge">
<title>[root] aws_cloudwatch_log_stream.vpn_log_stream (expand)&#45;&gt;[root] aws_cloudwatch_log_group.vpn_log_group (expand)</title>
<path fill="none" stroke="black" d="M634.19,-215.7C626.19,-207.22 616.43,-196.86 607.68,-187.58"/>
<polygon fill="black" stroke="black" points="610.03,-184.98 600.63,-180.1 604.94,-189.78 610.03,-184.98"/>
</g>
<!-- [root] aws_ec2_client_vpn_endpoint.vpn_endpoint (expand) -->
<g id="node3" class="node">
<title>[root] aws_ec2_client_vpn_endpoint.vpn_endpoint (expand)</title>
<polygon fill="none" stroke="black" points="1747.5,-324 1421.5,-324 1421.5,-288 1747.5,-288 1747.5,-324"/>
<text text-anchor="middle" x="1584.5" y="-302.3" font-family="Times,serif" font-size="14.00">aws_ec2_client_vpn_endpoint.vpn_endpoint</text>
</g>
<!-- [root] aws_ec2_client_vpn_endpoint.vpn_endpoint (expand)&#45;&gt;[root] aws_cloudwatch_log_stream.vpn_log_stream (expand) -->
<g id="edge6" class="edge">
<title>[root] aws_ec2_client_vpn_endpoint.vpn_endpoint (expand)&#45;&gt;[root] aws_cloudwatch_log_stream.vpn_log_stream (expand)</title>
<path fill="none" stroke="black" d="M1421.49,-293.27C1275.54,-282.71 1055.71,-266.63 864.5,-252 852.48,-251.08 840.08,-250.12 827.58,-249.15"/>
<polygon fill="black" stroke="black" points="827.79,-245.65 817.55,-248.36 827.25,-252.63 827.79,-245.65"/>
</g>
<!-- [root] var.CLIENT_CERTIFICATE_ARN -->
<g id="node17" class="node">
<title>[root] var.CLIENT_CERTIFICATE_ARN</title>
<polygon fill="none" stroke="black" points="1459,-252 1220,-252 1220,-216 1465,-216 1465,-246 1459,-252"/>
<polyline fill="none" stroke="black" points="1459,-252 1459,-246 "/>
<polyline fill="none" stroke="black" points="1465,-246 1459,-246 "/>
<text text-anchor="middle" x="1342.5" y="-230.3" font-family="Times,serif" font-size="14.00">var.CLIENT_CERTIFICATE_ARN</text>
</g>
<!-- [root] aws_ec2_client_vpn_endpoint.vpn_endpoint (expand)&#45;&gt;[root] var.CLIENT_CERTIFICATE_ARN -->
<g id="edge8" class="edge">
<title>[root] aws_ec2_client_vpn_endpoint.vpn_endpoint (expand)&#45;&gt;[root] var.CLIENT_CERTIFICATE_ARN</title>
<path fill="none" stroke="black" d="M1525.61,-287.97C1491.21,-278.01 1447.62,-265.41 1411.6,-254.99"/>
<polygon fill="black" stroke="black" points="1412.23,-251.53 1401.65,-252.11 1410.29,-258.25 1412.23,-251.53"/>
</g>
<!-- [root] var.CLIENT_CIDR_BLOCK -->
<g id="node18" class="node">
<title>[root] var.CLIENT_CIDR_BLOCK</title>
<polygon fill="none" stroke="black" points="1679.5,-252 1483.5,-252 1483.5,-216 1685.5,-216 1685.5,-246 1679.5,-252"/>
<polyline fill="none" stroke="black" points="1679.5,-252 1679.5,-246 "/>
<polyline fill="none" stroke="black" points="1685.5,-246 1679.5,-246 "/>
<text text-anchor="middle" x="1584.5" y="-230.3" font-family="Times,serif" font-size="14.00">var.CLIENT_CIDR_BLOCK</text>
</g>
<!-- [root] aws_ec2_client_vpn_endpoint.vpn_endpoint (expand)&#45;&gt;[root] var.CLIENT_CIDR_BLOCK -->
<g id="edge9" class="edge">
<title>[root] aws_ec2_client_vpn_endpoint.vpn_endpoint (expand)&#45;&gt;[root] var.CLIENT_CIDR_BLOCK</title>
<path fill="none" stroke="black" d="M1584.5,-287.7C1584.5,-279.98 1584.5,-270.71 1584.5,-262.11"/>
<polygon fill="black" stroke="black" points="1588,-262.1 1584.5,-252.1 1581,-262.1 1588,-262.1"/>
</g>
<!-- [root] var.SERVER_CERTIFICATE_ARN -->
<g id="node23" class="node">
<title>[root] var.SERVER_CERTIFICATE_ARN</title>
<polygon fill="none" stroke="black" points="2375,-252 2132,-252 2132,-216 2381,-216 2381,-246 2375,-252"/>
<polyline fill="none" stroke="black" points="2375,-252 2375,-246 "/>
<polyline fill="none" stroke="black" points="2381,-246 2375,-246 "/>
<text text-anchor="middle" x="2256.5" y="-230.3" font-family="Times,serif" font-size="14.00">var.SERVER_CERTIFICATE_ARN</text>
</g>
<!-- [root] aws_ec2_client_vpn_endpoint.vpn_endpoint (expand)&#45;&gt;[root] var.SERVER_CERTIFICATE_ARN -->
<g id="edge10" class="edge">
<title>[root] aws_ec2_client_vpn_endpoint.vpn_endpoint (expand)&#45;&gt;[root] var.SERVER_CERTIFICATE_ARN</title>
<path fill="none" stroke="black" d="M1747.68,-290.2C1851.92,-280.45 1990.25,-266.95 2121.66,-252.19"/>
<polygon fill="black" stroke="black" points="2122.37,-255.63 2131.91,-251.04 2121.58,-248.68 2122.37,-255.63"/>
</g>
<!-- [root] var.SPLIT_TUNNEL_ENABLED -->
<g id="node24" class="node">
<title>[root] var.SPLIT_TUNNEL_ENABLED</title>
<polygon fill="none" stroke="black" points="2108,-252 1877,-252 1877,-216 2114,-216 2114,-246 2108,-252"/>
<polyline fill="none" stroke="black" points="2108,-252 2108,-246 "/>
<polyline fill="none" stroke="black" points="2114,-246 2108,-246 "/>
<text text-anchor="middle" x="1995.5" y="-230.3" font-family="Times,serif" font-size="14.00">var.SPLIT_TUNNEL_ENABLED</text>
</g>
<!-- [root] aws_ec2_client_vpn_endpoint.vpn_endpoint (expand)&#45;&gt;[root] var.SPLIT_TUNNEL_ENABLED -->
<g id="edge11" class="edge">
<title>[root] aws_ec2_client_vpn_endpoint.vpn_endpoint (expand)&#45;&gt;[root] var.SPLIT_TUNNEL_ENABLED</title>
<path fill="none" stroke="black" d="M1684.52,-287.97C1745.3,-277.61 1822.98,-264.38 1885.49,-253.74"/>
<polygon fill="black" stroke="black" points="1886.12,-257.18 1895.39,-252.05 1884.95,-250.28 1886.12,-257.18"/>
</g>
<!-- [root] local.default_tags (expand) -->
<g id="node29" class="node">
<title>[root] local.default_tags (expand)</title>
<ellipse fill="none" stroke="black" cx="1037.5" cy="-234" rx="164.37" ry="18"/>
<text text-anchor="middle" x="1037.5" y="-230.3" font-family="Times,serif" font-size="14.00">[root] local.default_tags (expand)</text>
</g>
<!-- [root] aws_ec2_client_vpn_endpoint.vpn_endpoint (expand)&#45;&gt;[root] local.default_tags (expand) -->
<g id="edge7" class="edge">
<title>[root] aws_ec2_client_vpn_endpoint.vpn_endpoint (expand)&#45;&gt;[root] local.default_tags (expand)</title>
<path fill="none" stroke="black" d="M1451.39,-287.97C1359.12,-276.16 1237.62,-260.61 1150.15,-249.42"/>
<polygon fill="black" stroke="black" points="1150.56,-245.94 1140.19,-248.14 1149.67,-252.88 1150.56,-245.94"/>
</g>
<!-- [root] aws_ec2_client_vpn_network_association.subnets (expand) -->
<g id="node4" class="node">
<title>[root] aws_ec2_client_vpn_network_association.subnets (expand)</title>
<polygon fill="none" stroke="black" points="1147.5,-396 779.5,-396 779.5,-360 1147.5,-360 1147.5,-396"/>
<text text-anchor="middle" x="963.5" y="-374.3" font-family="Times,serif" font-size="14.00">aws_ec2_client_vpn_network_association.subnets</text>
</g>
<!-- [root] aws_ec2_client_vpn_network_association.subnets (expand)&#45;&gt;[root] aws_ec2_client_vpn_endpoint.vpn_endpoint (expand) -->
<g id="edge12" class="edge">
<title>[root] aws_ec2_client_vpn_network_association.subnets (expand)&#45;&gt;[root] aws_ec2_client_vpn_endpoint.vpn_endpoint (expand)</title>
<path fill="none" stroke="black" d="M1114.62,-359.97C1208.15,-349.42 1328.16,-335.89 1423.49,-325.15"/>
<polygon fill="black" stroke="black" points="1423.97,-328.62 1433.51,-324.02 1423.18,-321.66 1423.97,-328.62"/>
</g>
<!-- [root] var.ASSOSIATED_SUBNET_IDS -->
<g id="node16" class="node">
<title>[root] var.ASSOSIATED_SUBNET_IDS</title>
<polygon fill="none" stroke="black" points="327,-324 92,-324 92,-288 333,-288 333,-318 327,-324"/>
<polyline fill="none" stroke="black" points="327,-324 327,-318 "/>
<polyline fill="none" stroke="black" points="333,-318 327,-318 "/>
<text text-anchor="middle" x="212.5" y="-302.3" font-family="Times,serif" font-size="14.00">var.ASSOSIATED_SUBNET_IDS</text>
</g>
<!-- [root] aws_ec2_client_vpn_network_association.subnets (expand)&#45;&gt;[root] var.ASSOSIATED_SUBNET_IDS -->
<g id="edge13" class="edge">
<title>[root] aws_ec2_client_vpn_network_association.subnets (expand)&#45;&gt;[root] var.ASSOSIATED_SUBNET_IDS</title>
<path fill="none" stroke="black" d="M779.2,-363.45C658.19,-354.03 496.21,-340.43 343.29,-324.06"/>
<polygon fill="black" stroke="black" points="343.55,-320.57 333.23,-322.97 342.8,-327.52 343.55,-320.57"/>
</g>
<!-- [root] aws_security_group.allow_vpn (expand) -->
<g id="node5" class="node">
<title>[root] aws_security_group.allow_vpn (expand)</title>
<polygon fill="none" stroke="black" points="998,-324 765,-324 765,-288 998,-288 998,-324"/>
<text text-anchor="middle" x="881.5" y="-302.3" font-family="Times,serif" font-size="14.00">aws_security_group.allow_vpn</text>
</g>
<!-- [root] aws_security_group.allow_vpn (expand)&#45;&gt;[root] provider[&quot;registry.terraform.io/hashicorp/aws&quot;] -->
<g id="edge16" class="edge">
<title>[root] aws_security_group.allow_vpn (expand)&#45;&gt;[root] provider[&quot;registry.terraform.io/hashicorp/aws&quot;]</title>
<path fill="none" stroke="black" d="M872.05,-287.99C863.05,-269.35 852.53,-239.03 864.5,-216 891.37,-164.29 950.54,-129.5 993.29,-110.02"/>
<polygon fill="black" stroke="black" points="994.96,-113.11 1002.69,-105.86 992.13,-106.71 994.96,-113.11"/>
</g>
<!-- [root] var.INGRESS_CIDR -->
<g id="node20" class="node">
<title>[root] var.INGRESS_CIDR</title>
<polygon fill="none" stroke="black" points="1853,-252 1704,-252 1704,-216 1859,-216 1859,-246 1853,-252"/>
<polyline fill="none" stroke="black" points="1853,-252 1853,-246 "/>
<polyline fill="none" stroke="black" points="1859,-246 1853,-246 "/>
<text text-anchor="middle" x="1781.5" y="-230.3" font-family="Times,serif" font-size="14.00">var.INGRESS_CIDR</text>
</g>
<!-- [root] aws_security_group.allow_vpn (expand)&#45;&gt;[root] var.INGRESS_CIDR -->
<g id="edge17" class="edge">
<title>[root] aws_security_group.allow_vpn (expand)&#45;&gt;[root] var.INGRESS_CIDR</title>
<path fill="none" stroke="black" d="M998.07,-302.08C1154.26,-297.12 1440.14,-284.35 1693.65,-252"/>
<polygon fill="black" stroke="black" points="1694.32,-255.44 1703.79,-250.7 1693.43,-248.5 1694.32,-255.44"/>
</g>
<!-- [root] aws_security_group.allow_vpn (expand)&#45;&gt;[root] var.SUFFIX -->
<g id="edge18" class="edge">
<title>[root] aws_security_group.allow_vpn (expand)&#45;&gt;[root] var.SUFFIX</title>
<path fill="none" stroke="black" d="M764.75,-288.94C761.97,-288.61 759.22,-288.3 756.5,-288 570.73,-267.4 516.19,-306.83 337.5,-252 236.29,-220.95 131.12,-150.82 80.45,-114.22"/>
<polygon fill="black" stroke="black" points="82.36,-111.28 72.21,-108.22 78.23,-116.94 82.36,-111.28"/>
</g>
<!-- [root] var.VPC_ID -->
<g id="node26" class="node">
<title>[root] var.VPC_ID</title>
<polygon fill="none" stroke="black" points="459.5,-252 369.5,-252 369.5,-216 465.5,-216 465.5,-246 459.5,-252"/>
<polyline fill="none" stroke="black" points="459.5,-252 459.5,-246 "/>
<polyline fill="none" stroke="black" points="465.5,-246 459.5,-246 "/>
<text text-anchor="middle" x="417.5" y="-230.3" font-family="Times,serif" font-size="14.00">var.VPC_ID</text>
</g>
<!-- [root] aws_security_group.allow_vpn (expand)&#45;&gt;[root] var.VPC_ID -->
<g id="edge19" class="edge">
<title>[root] aws_security_group.allow_vpn (expand)&#45;&gt;[root] var.VPC_ID</title>
<path fill="none" stroke="black" d="M764.73,-289.09C761.96,-288.72 759.21,-288.36 756.5,-288 634.41,-271.91 599.86,-277.82 475.47,-252.02"/>
<polygon fill="black" stroke="black" points="476.07,-248.56 465.56,-249.93 474.63,-255.42 476.07,-248.56"/>
</g>
<!-- [root] aws_security_group.allow_vpn (expand)&#45;&gt;[root] local.environment_name (expand) -->
<g id="edge15" class="edge">
<title>[root] aws_security_group.allow_vpn (expand)&#45;&gt;[root] local.environment_name (expand)</title>
<path fill="none" stroke="black" d="M764.75,-288.95C761.97,-288.63 759.22,-288.31 756.5,-288 668.7,-278.04 428.72,-308.16 360.5,-252 339.82,-234.98 324.59,-159.26 317.66,-118.01"/>
<polygon fill="black" stroke="black" points="321.1,-117.39 316.04,-108.09 314.19,-118.52 321.1,-117.39"/>
</g>
<!-- [root] aws_security_group.allow_vpn (expand)&#45;&gt;[root] local.default_tags (expand) -->
<g id="edge14" class="edge">
<title>[root] aws_security_group.allow_vpn (expand)&#45;&gt;[root] local.default_tags (expand)</title>
<path fill="none" stroke="black" d="M919.66,-287.88C941.31,-278.16 968.54,-265.94 991.38,-255.7"/>
<polygon fill="black" stroke="black" points="992.85,-258.87 1000.54,-251.59 989.98,-252.49 992.85,-258.87"/>
</g>
<!-- [root] null_resource.attach_crl (expand) -->
<g id="node6" class="node">
<title>[root] null_resource.attach_crl (expand)</title>
<polygon fill="none" stroke="black" points="1884.5,-396 1696.5,-396 1696.5,-360 1884.5,-360 1884.5,-396"/>
<text text-anchor="middle" x="1790.5" y="-374.3" font-family="Times,serif" font-size="14.00">null_resource.attach_crl</text>
</g>
<!-- [root] null_resource.attach_crl (expand)&#45;&gt;[root] aws_ec2_client_vpn_endpoint.vpn_endpoint (expand) -->
<g id="edge31" class="edge">
<title>[root] null_resource.attach_crl (expand)&#45;&gt;[root] aws_ec2_client_vpn_endpoint.vpn_endpoint (expand)</title>
<path fill="none" stroke="black" d="M1740.37,-359.97C1711.46,-350.14 1674.93,-337.73 1644.5,-327.39"/>
<polygon fill="black" stroke="black" points="1645.45,-324.01 1634.85,-324.11 1643.2,-330.64 1645.45,-324.01"/>
</g>
<!-- [root] null_resource.crl (expand) -->
<g id="node8" class="node">
<title>[root] null_resource.crl (expand)</title>
<polygon fill="none" stroke="black" points="2575.5,-324 2439.5,-324 2439.5,-288 2575.5,-288 2575.5,-324"/>
<text text-anchor="middle" x="2507.5" y="-302.3" font-family="Times,serif" font-size="14.00">null_resource.crl</text>
</g>
<!-- [root] null_resource.attach_crl (expand)&#45;&gt;[root] null_resource.crl (expand) -->
<g id="edge32" class="edge">
<title>[root] null_resource.attach_crl (expand)&#45;&gt;[root] null_resource.crl (expand)</title>
<path fill="none" stroke="black" d="M1884.56,-361.3C1887.91,-360.84 1891.23,-360.41 1894.5,-360 2085.88,-336.12 2312.22,-319.56 2429.02,-311.87"/>
<polygon fill="black" stroke="black" points="2429.54,-315.35 2439.29,-311.2 2429.08,-308.36 2429.54,-315.35"/>
</g>
<!-- [root] null_resource.attach_security_group (expand) -->
<g id="node7" class="node">
<title>[root] null_resource.attach_security_group (expand)</title>
<polygon fill="none" stroke="black" points="2178,-396 1903,-396 1903,-360 2178,-360 2178,-396"/>
<text text-anchor="middle" x="2040.5" y="-374.3" font-family="Times,serif" font-size="14.00">null_resource.attach_security_group</text>
</g>
<!-- [root] null_resource.attach_security_group (expand)&#45;&gt;[root] aws_ec2_client_vpn_endpoint.vpn_endpoint (expand) -->
<g id="edge33" class="edge">
<title>[root] null_resource.attach_security_group (expand)&#45;&gt;[root] aws_ec2_client_vpn_endpoint.vpn_endpoint (expand)</title>
<path fill="none" stroke="black" d="M1929.53,-359.97C1861.82,-349.57 1775.2,-336.27 1705.7,-325.6"/>
<polygon fill="black" stroke="black" points="1705.98,-322.11 1695.57,-324.05 1704.92,-329.03 1705.98,-322.11"/>
</g>
<!-- [root] null_resource.attach_security_group (expand)&#45;&gt;[root] aws_security_group.allow_vpn (expand) -->
<g id="edge34" class="edge">
<title>[root] null_resource.attach_security_group (expand)&#45;&gt;[root] aws_security_group.allow_vpn (expand)</title>
<path fill="none" stroke="black" d="M1902.81,-360.81C1899.68,-360.53 1896.57,-360.26 1893.5,-360 1575.51,-333.31 1200.1,-317.84 1008.27,-311.08"/>
<polygon fill="black" stroke="black" points="1008.27,-307.58 998.15,-310.73 1008.02,-314.58 1008.27,-307.58"/>
</g>
<!-- [root] provider[&quot;registry.terraform.io/hashicorp/null&quot;] -->
<g id="node15" class="node">
<title>[root] provider[&quot;registry.terraform.io/hashicorp/null&quot;]</title>
<polygon fill="none" stroke="black" points="3217.5,-252 2893.07,-234 3217.5,-216 3541.93,-234 3217.5,-252"/>
<text text-anchor="middle" x="3217.5" y="-230.3" font-family="Times,serif" font-size="14.00">provider[&quot;registry.terraform.io/hashicorp/null&quot;]</text>
</g>
<!-- [root] null_resource.attach_security_group (expand)&#45;&gt;[root] provider[&quot;registry.terraform.io/hashicorp/null&quot;] -->
<g id="edge35" class="edge">
<title>[root] null_resource.attach_security_group (expand)&#45;&gt;[root] provider[&quot;registry.terraform.io/hashicorp/null&quot;]</title>
<path fill="none" stroke="black" d="M2178.2,-360.93C2181.33,-360.61 2184.43,-360.3 2187.5,-360 2385.86,-340.55 2436.53,-347.05 2634.5,-324 2812.94,-303.22 3020.64,-269.12 3133.67,-249.72"/>
<polygon fill="black" stroke="black" points="3134.38,-253.15 3143.64,-248 3133.19,-246.25 3134.38,-253.15"/>
</g>
<!-- [root] provisioner.local&#45;exec -->
<g id="node31" class="node">
<title>[root] provisioner.local&#45;exec</title>
<ellipse fill="none" stroke="black" cx="2735.5" cy="-234" rx="139.98" ry="18"/>
<text text-anchor="middle" x="2735.5" y="-230.3" font-family="Times,serif" font-size="14.00">[root] provisioner.local&#45;exec</text>
</g>
<!-- [root] null_resource.attach_security_group (expand)&#45;&gt;[root] provisioner.local&#45;exec -->
<g id="edge36" class="edge">
<title>[root] null_resource.attach_security_group (expand)&#45;&gt;[root] provisioner.local&#45;exec</title>
<path fill="none" stroke="black" d="M2178.2,-360.97C2181.33,-360.64 2184.43,-360.32 2187.5,-360 2363.73,-341.82 2415.86,-378.3 2584.5,-324 2630.11,-309.31 2676.74,-279.02 2705.88,-257.88"/>
<polygon fill="black" stroke="black" points="2708,-260.66 2713.98,-251.91 2703.85,-255.03 2708,-260.66"/>
</g>
<!-- [root] null_resource.crl (expand)&#45;&gt;[root] provider[&quot;registry.terraform.io/hashicorp/null&quot;] -->
<g id="edge37" class="edge">
<title>[root] null_resource.crl (expand)&#45;&gt;[root] provider[&quot;registry.terraform.io/hashicorp/null&quot;]</title>
<path fill="none" stroke="black" d="M2575.58,-298.29C2695.69,-286.45 2946.67,-261.7 3096.76,-246.9"/>
<polygon fill="black" stroke="black" points="3097.33,-250.36 3106.94,-245.9 3096.64,-243.4 3097.33,-250.36"/>
</g>
<!-- [root] var.CRL_SECRET -->
<g id="node19" class="node">
<title>[root] var.CRL_SECRET</title>
<polygon fill="none" stroke="black" points="2571.5,-252 2437.5,-252 2437.5,-216 2577.5,-216 2577.5,-246 2571.5,-252"/>
<polyline fill="none" stroke="black" points="2571.5,-252 2571.5,-246 "/>
<polyline fill="none" stroke="black" points="2577.5,-246 2571.5,-246 "/>
<text text-anchor="middle" x="2507.5" y="-230.3" font-family="Times,serif" font-size="14.00">var.CRL_SECRET</text>
</g>
<!-- [root] null_resource.crl (expand)&#45;&gt;[root] var.CRL_SECRET -->
<g id="edge39" class="edge">
<title>[root] null_resource.crl (expand)&#45;&gt;[root] var.CRL_SECRET</title>
<path fill="none" stroke="black" d="M2507.5,-287.7C2507.5,-279.98 2507.5,-270.71 2507.5,-262.11"/>
<polygon fill="black" stroke="black" points="2511,-262.1 2507.5,-252.1 2504,-262.1 2511,-262.1"/>
</g>
<!-- [root] var.globals -->
<g id="node27" class="node">
<title>[root] var.globals</title>
<polygon fill="none" stroke="black" points="1436.5,-36 1348.5,-36 1348.5,0 1442.5,0 1442.5,-30 1436.5,-36"/>
<polyline fill="none" stroke="black" points="1436.5,-36 1436.5,-30 "/>
<polyline fill="none" stroke="black" points="1442.5,-30 1436.5,-30 "/>
<text text-anchor="middle" x="1395.5" y="-14.3" font-family="Times,serif" font-size="14.00">var.globals</text>
</g>
<!-- [root] null_resource.crl (expand)&#45;&gt;[root] var.globals -->
<g id="edge40" class="edge">
<title>[root] null_resource.crl (expand)&#45;&gt;[root] var.globals</title>
<path fill="none" stroke="black" d="M2479.65,-287.93C2464.14,-278.04 2444.75,-265 2428.5,-252 2410.33,-237.47 2411.17,-226.68 2390.5,-216 2065.14,-47.88 1611.74,-22.9 1453.07,-19.45"/>
<polygon fill="black" stroke="black" points="1452.67,-15.94 1442.6,-19.24 1452.53,-22.94 1452.67,-15.94"/>
</g>
<!-- [root] null_resource.crl (expand)&#45;&gt;[root] provisioner.local&#45;exec -->
<g id="edge38" class="edge">
<title>[root] null_resource.crl (expand)&#45;&gt;[root] provisioner.local&#45;exec</title>
<path fill="none" stroke="black" d="M2562.98,-287.97C2596.58,-277.65 2639.47,-264.48 2674.08,-253.86"/>
<polygon fill="black" stroke="black" points="2675.54,-257.07 2684.07,-250.79 2673.48,-250.38 2675.54,-257.07"/>
</g>
<!-- [root] null_resource.ingress_authorization (expand) -->
<g id="node9" class="node">
<title>[root] null_resource.ingress_authorization (expand)</title>
<polygon fill="none" stroke="black" points="2468.5,-396 2196.5,-396 2196.5,-360 2468.5,-360 2468.5,-396"/>
<text text-anchor="middle" x="2332.5" y="-374.3" font-family="Times,serif" font-size="14.00">null_resource.ingress_authorization</text>
</g>
<!-- [root] null_resource.ingress_authorization (expand)&#45;&gt;[root] aws_ec2_client_vpn_endpoint.vpn_endpoint (expand) -->
<g id="edge41" class="edge">
<title>[root] null_resource.ingress_authorization (expand)&#45;&gt;[root] aws_ec2_client_vpn_endpoint.vpn_endpoint (expand)</title>
<path fill="none" stroke="black" d="M2196.29,-360.91C2193.33,-360.6 2190.4,-360.3 2187.5,-360 2042.85,-345.17 1878.42,-330.89 1757.84,-320.89"/>
<polygon fill="black" stroke="black" points="1758.03,-317.4 1747.78,-320.06 1757.45,-324.37 1758.03,-317.4"/>
</g>
<!-- [root] null_resource.ingress_authorization (expand)&#45;&gt;[root] provider[&quot;registry.terraform.io/hashicorp/null&quot;] -->
<g id="edge42" class="edge">
<title>[root] null_resource.ingress_authorization (expand)&#45;&gt;[root] provider[&quot;registry.terraform.io/hashicorp/null&quot;]</title>
<path fill="none" stroke="black" d="M2468.67,-376.62C2600.53,-373.73 2805.37,-362.56 2978.5,-324 3050.06,-308.06 3129.05,-275.5 3175.91,-254.5"/>
<polygon fill="black" stroke="black" points="3177.45,-257.64 3185.12,-250.33 3174.57,-251.26 3177.45,-257.64"/>
</g>
<!-- [root] null_resource.ingress_authorization (expand)&#45;&gt;[root] var.INGRESS_CIDR -->
<g id="edge44" class="edge">
<title>[root] null_resource.ingress_authorization (expand)&#45;&gt;[root] var.INGRESS_CIDR</title>
<path fill="none" stroke="black" d="M2266.31,-359.94C2163.58,-333.47 1966.29,-282.62 1857.75,-254.65"/>
<polygon fill="black" stroke="black" points="1858.4,-251.2 1847.85,-252.1 1856.66,-257.98 1858.4,-251.2"/>
</g>
<!-- [root] null_resource.ingress_authorization (expand)&#45;&gt;[root] provisioner.local&#45;exec -->
<g id="edge43" class="edge">
<title>[root] null_resource.ingress_authorization (expand)&#45;&gt;[root] provisioner.local&#45;exec</title>
<path fill="none" stroke="black" d="M2468.61,-365.25C2544.98,-356.74 2631.41,-343.29 2664.5,-324 2689.82,-309.24 2709.63,-281.71 2721.82,-261.17"/>
<polygon fill="black" stroke="black" points="2724.97,-262.71 2726.87,-252.29 2718.88,-259.25 2724.97,-262.71"/>
</g>
<!-- [root] output.client_cidr_block -->
<g id="node10" class="node">
<title>[root] output.client_cidr_block</title>
<polygon fill="none" stroke="black" points="1672,-396 1491,-396 1491,-360 1678,-360 1678,-390 1672,-396"/>
<polyline fill="none" stroke="black" points="1672,-396 1672,-390 "/>
<polyline fill="none" stroke="black" points="1678,-390 1672,-390 "/>
<text text-anchor="middle" x="1584.5" y="-374.3" font-family="Times,serif" font-size="14.00">output.client_cidr_block</text>
</g>
<!-- [root] output.client_cidr_block&#45;&gt;[root] aws_ec2_client_vpn_endpoint.vpn_endpoint (expand) -->
<g id="edge45" class="edge">
<title>[root] output.client_cidr_block&#45;&gt;[root] aws_ec2_client_vpn_endpoint.vpn_endpoint (expand)</title>
<path fill="none" stroke="black" d="M1584.5,-359.7C1584.5,-351.98 1584.5,-342.71 1584.5,-334.11"/>
<polygon fill="black" stroke="black" points="1588,-334.1 1584.5,-324.1 1581,-334.1 1588,-334.1"/>
</g>
<!-- [root] output.client_vpn_endpoint_id -->
<g id="node11" class="node">
<title>[root] output.client_vpn_endpoint_id</title>
<polygon fill="none" stroke="black" points="1467,-396 1242,-396 1242,-360 1473,-360 1473,-390 1467,-396"/>
<polyline fill="none" stroke="black" points="1467,-396 1467,-390 "/>
<polyline fill="none" stroke="black" points="1473,-390 1467,-390 "/>
<text text-anchor="middle" x="1357.5" y="-374.3" font-family="Times,serif" font-size="14.00">output.client_vpn_endpoint_id</text>
</g>
<!-- [root] output.client_vpn_endpoint_id&#45;&gt;[root] aws_ec2_client_vpn_endpoint.vpn_endpoint (expand) -->
<g id="edge46" class="edge">
<title>[root] output.client_vpn_endpoint_id&#45;&gt;[root] aws_ec2_client_vpn_endpoint.vpn_endpoint (expand)</title>
<path fill="none" stroke="black" d="M1412.74,-359.97C1444.87,-350.06 1485.55,-337.51 1519.25,-327.12"/>
<polygon fill="black" stroke="black" points="1520.49,-330.4 1529.01,-324.11 1518.42,-323.71 1520.49,-330.4"/>
</g>
<!-- [root] output.log_group_name -->
<g id="node12" class="node">
<title>[root] output.log_group_name</title>
<polygon fill="none" stroke="black" points="530,-324 351,-324 351,-288 536,-288 536,-318 530,-324"/>
<polyline fill="none" stroke="black" points="530,-324 530,-318 "/>
<polyline fill="none" stroke="black" points="536,-318 530,-318 "/>
<text text-anchor="middle" x="443.5" y="-302.3" font-family="Times,serif" font-size="14.00">output.log_group_name</text>
</g>
<!-- [root] output.log_group_name&#45;&gt;[root] aws_cloudwatch_log_group.vpn_log_group (expand) -->
<g id="edge47" class="edge">
<title>[root] output.log_group_name&#45;&gt;[root] aws_cloudwatch_log_group.vpn_log_group (expand)</title>
<path fill="none" stroke="black" d="M399.94,-287.87C384.64,-279.49 369.13,-267.74 360.5,-252 352.81,-237.97 350.57,-228.55 360.5,-216 372.14,-201.29 405.35,-190.24 442.76,-182.15"/>
<polygon fill="black" stroke="black" points="443.79,-185.51 452.87,-180.05 442.37,-178.65 443.79,-185.51"/>
</g>
<!-- [root] output.log_stream_name -->
<g id="node13" class="node">
<title>[root] output.log_stream_name</title>
<polygon fill="none" stroke="black" points="741,-324 554,-324 554,-288 747,-288 747,-318 741,-324"/>
<polyline fill="none" stroke="black" points="741,-324 741,-318 "/>
<polyline fill="none" stroke="black" points="747,-318 741,-318 "/>
<text text-anchor="middle" x="650.5" y="-302.3" font-family="Times,serif" font-size="14.00">output.log_stream_name</text>
</g>
<!-- [root] output.log_stream_name&#45;&gt;[root] aws_cloudwatch_log_stream.vpn_log_stream (expand) -->
<g id="edge48" class="edge">
<title>[root] output.log_stream_name&#45;&gt;[root] aws_cloudwatch_log_stream.vpn_log_stream (expand)</title>
<path fill="none" stroke="black" d="M650.5,-287.7C650.5,-279.98 650.5,-270.71 650.5,-262.11"/>
<polygon fill="black" stroke="black" points="654,-262.1 650.5,-252.1 647,-262.1 654,-262.1"/>
</g>
<!-- [root] var.MODULE_VERSION -->
<g id="node22" class="node">
<title>[root] var.MODULE_VERSION</title>
<polygon fill="none" stroke="black" points="1604,-180 1423,-180 1423,-144 1610,-144 1610,-174 1604,-180"/>
<polyline fill="none" stroke="black" points="1604,-180 1604,-174 "/>
<polyline fill="none" stroke="black" points="1610,-174 1604,-174 "/>
<text text-anchor="middle" x="1516.5" y="-158.3" font-family="Times,serif" font-size="14.00">var.MODULE_VERSION</text>
</g>
<!-- [root] local.environment_name (expand)&#45;&gt;[root] var.globals -->
<g id="edge22" class="edge">
<title>[root] local.environment_name (expand)&#45;&gt;[root] var.globals</title>
<path fill="none" stroke="black" d="M451.7,-77.18C474.35,-75.36 497.58,-73.57 519.5,-72 828.26,-49.92 1198.67,-29.51 1338.42,-22.02"/>
<polygon fill="black" stroke="black" points="1338.67,-25.51 1348.47,-21.48 1338.3,-18.52 1338.67,-25.51"/>
</g>
<!-- [root] local.default_tags (expand)&#45;&gt;[root] var.MODULE_VERSION -->
<g id="edge20" class="edge">
<title>[root] local.default_tags (expand)&#45;&gt;[root] var.MODULE_VERSION</title>
<path fill="none" stroke="black" d="M1135.47,-219.48C1210.52,-209.02 1316.61,-194 1409.5,-180 1410.59,-179.84 1411.69,-179.67 1412.8,-179.5"/>
<polygon fill="black" stroke="black" points="1413.5,-182.94 1422.86,-177.97 1412.44,-176.02 1413.5,-182.94"/>
</g>
<!-- [root] local.default_tags (expand)&#45;&gt;[root] var.globals -->
<g id="edge21" class="edge">
<title>[root] local.default_tags (expand)&#45;&gt;[root] var.globals</title>
<path fill="none" stroke="black" d="M1146.21,-220.46C1221.63,-205.98 1318.58,-174.85 1376.5,-108 1391.17,-91.07 1395.41,-65.6 1396.29,-46.24"/>
<polygon fill="black" stroke="black" points="1399.79,-46.27 1396.47,-36.21 1392.79,-46.14 1399.79,-46.27"/>
</g>
<!-- [root] meta.count&#45;boundary (EachMode fixup) -->
<g id="node30" class="node">
<title>[root] meta.count&#45;boundary (EachMode fixup)</title>
<ellipse fill="none" stroke="black" cx="1501.5" cy="-450" rx="222.86" ry="18"/>
<text text-anchor="middle" x="1501.5" y="-446.3" font-family="Times,serif" font-size="14.00">[root] meta.count&#45;boundary (EachMode fixup)</text>
</g>
<!-- [root] meta.count&#45;boundary (EachMode fixup)&#45;&gt;[root] aws_ec2_client_vpn_network_association.subnets (expand) -->
<g id="edge23" class="edge">
<title>[root] meta.count&#45;boundary (EachMode fixup)&#45;&gt;[root] aws_ec2_client_vpn_network_association.subnets (expand)</title>
<path fill="none" stroke="black" d="M1389.37,-434.41C1306.64,-423.65 1193.48,-408.92 1104.6,-397.36"/>
<polygon fill="black" stroke="black" points="1104.8,-393.86 1094.44,-396.04 1103.9,-400.8 1104.8,-393.86"/>
</g>
<!-- [root] meta.count&#45;boundary (EachMode fixup)&#45;&gt;[root] null_resource.attach_crl (expand) -->
<g id="edge24" class="edge">
<title>[root] meta.count&#45;boundary (EachMode fixup)&#45;&gt;[root] null_resource.attach_crl (expand)</title>
<path fill="none" stroke="black" d="M1568.53,-432.76C1610.85,-422.51 1665.76,-409.21 1710.37,-398.41"/>
<polygon fill="black" stroke="black" points="1711.42,-401.76 1720.31,-396 1709.77,-394.95 1711.42,-401.76"/>
</g>
<!-- [root] meta.count&#45;boundary (EachMode fixup)&#45;&gt;[root] null_resource.attach_security_group (expand) -->
<g id="edge25" class="edge">
<title>[root] meta.count&#45;boundary (EachMode fixup)&#45;&gt;[root] null_resource.attach_security_group (expand)</title>
<path fill="none" stroke="black" d="M1613.84,-434.41C1696.72,-423.65 1810.09,-408.92 1899.14,-397.36"/>
<polygon fill="black" stroke="black" points="1899.85,-400.8 1909.32,-396.04 1898.95,-393.85 1899.85,-400.8"/>
</g>
<!-- [root] meta.count&#45;boundary (EachMode fixup)&#45;&gt;[root] null_resource.ingress_authorization (expand) -->
<g id="edge26" class="edge">
<title>[root] meta.count&#45;boundary (EachMode fixup)&#45;&gt;[root] null_resource.ingress_authorization (expand)</title>
<path fill="none" stroke="black" d="M1661.19,-437.4C1826.08,-425.29 2073.58,-406.73 2186.15,-396.1"/>
<polygon fill="black" stroke="black" points="2186.67,-399.57 2196.29,-395.13 2186,-392.6 2186.67,-399.57"/>
</g>
<!-- [root] meta.count&#45;boundary (EachMode fixup)&#45;&gt;[root] output.client_cidr_block -->
<g id="edge27" class="edge">
<title>[root] meta.count&#45;boundary (EachMode fixup)&#45;&gt;[root] output.client_cidr_block</title>
<path fill="none" stroke="black" d="M1521.59,-432.05C1532.12,-423.18 1545.17,-412.17 1556.66,-402.48"/>
<polygon fill="black" stroke="black" points="1558.92,-405.15 1564.31,-396.03 1554.4,-399.8 1558.92,-405.15"/>
</g>
<!-- [root] meta.count&#45;boundary (EachMode fixup)&#45;&gt;[root] output.client_vpn_endpoint_id -->
<g id="edge28" class="edge">
<title>[root] meta.count&#45;boundary (EachMode fixup)&#45;&gt;[root] output.client_vpn_endpoint_id</title>
<path fill="none" stroke="black" d="M1466.64,-432.05C1447.06,-422.54 1422.44,-410.57 1401.54,-400.41"/>
<polygon fill="black" stroke="black" points="1403.06,-397.26 1392.54,-396.03 1400,-403.55 1403.06,-397.26"/>
</g>
<!-- [root] meta.count&#45;boundary (EachMode fixup)&#45;&gt;[root] output.log_group_name -->
<g id="edge29" class="edge">
<title>[root] meta.count&#45;boundary (EachMode fixup)&#45;&gt;[root] output.log_group_name</title>
<path fill="none" stroke="black" d="M1370.72,-435.37C1299.91,-426.32 1220.68,-412.98 1189.5,-396 1170.44,-385.62 1176.1,-369.32 1156.5,-360 1036.42,-302.91 696.4,-337.56 546.06,-323.88"/>
<polygon fill="black" stroke="black" points="546.31,-320.39 536.01,-322.86 545.6,-327.35 546.31,-320.39"/>
</g>
<!-- [root] meta.count&#45;boundary (EachMode fixup)&#45;&gt;[root] output.log_stream_name -->
<g id="edge30" class="edge">
<title>[root] meta.count&#45;boundary (EachMode fixup)&#45;&gt;[root] output.log_stream_name</title>
<path fill="none" stroke="black" d="M1366.9,-435.58C1322.92,-427.78 1274.79,-415.46 1233.5,-396 1210.64,-385.23 1212.92,-369.47 1189.5,-360 1102.79,-324.93 867.67,-334.96 757.48,-323.96"/>
<polygon fill="black" stroke="black" points="757.54,-320.44 747.22,-322.82 756.78,-327.4 757.54,-320.44"/>
</g>
<!-- [root] provider[&quot;registry.terraform.io/hashicorp/aws&quot;] (close) -->
<g id="node32" class="node">
<title>[root] provider[&quot;registry.terraform.io/hashicorp/aws&quot;] (close)</title>
<ellipse fill="none" stroke="black" cx="963.5" cy="-450" rx="291.65" ry="18"/>
<text text-anchor="middle" x="963.5" y="-446.3" font-family="Times,serif" font-size="14.00">[root] provider[&quot;registry.terraform.io/hashicorp/aws&quot;] (close)</text>
</g>
<!-- [root] provider[&quot;registry.terraform.io/hashicorp/aws&quot;] (close)&#45;&gt;[root] aws_ec2_client_vpn_network_association.subnets (expand) -->
<g id="edge49" class="edge">
<title>[root] provider[&quot;registry.terraform.io/hashicorp/aws&quot;] (close)&#45;&gt;[root] aws_ec2_client_vpn_network_association.subnets (expand)</title>
<path fill="none" stroke="black" d="M963.5,-431.7C963.5,-423.98 963.5,-414.71 963.5,-406.11"/>
<polygon fill="black" stroke="black" points="967,-406.1 963.5,-396.1 960,-406.1 967,-406.1"/>
</g>
<!-- [root] provider[&quot;registry.terraform.io/hashicorp/aws&quot;] (close)&#45;&gt;[root] aws_security_group.allow_vpn (expand) -->
<g id="edge50" class="edge">
<title>[root] provider[&quot;registry.terraform.io/hashicorp/aws&quot;] (close)&#45;&gt;[root] aws_security_group.allow_vpn (expand)</title>
<path fill="none" stroke="black" d="M863.9,-433.05C823.14,-424.3 782.67,-411.96 770.5,-396 760.8,-383.28 761.96,-373.53 770.5,-360 779.13,-346.31 792.38,-336.09 806.75,-328.47"/>
<polygon fill="black" stroke="black" points="808.36,-331.58 815.82,-324.05 805.29,-325.29 808.36,-331.58"/>
</g>
<!-- [root] provider[&quot;registry.terraform.io/hashicorp/null&quot;] (close) -->
<g id="node33" class="node">
<title>[root] provider[&quot;registry.terraform.io/hashicorp/null&quot;] (close)</title>
<ellipse fill="none" stroke="black" cx="2037.5" cy="-450" rx="291.65" ry="18"/>
<text text-anchor="middle" x="2037.5" y="-446.3" font-family="Times,serif" font-size="14.00">[root] provider[&quot;registry.terraform.io/hashicorp/null&quot;] (close)</text>
</g>
<!-- [root] provider[&quot;registry.terraform.io/hashicorp/null&quot;] (close)&#45;&gt;[root] null_resource.attach_crl (expand) -->
<g id="edge51" class="edge">
<title>[root] provider[&quot;registry.terraform.io/hashicorp/null&quot;] (close)&#45;&gt;[root] null_resource.attach_crl (expand)</title>
<path fill="none" stroke="black" d="M1978.65,-432.32C1943.15,-422.26 1897.73,-409.39 1860.41,-398.81"/>
<polygon fill="black" stroke="black" points="1861.19,-395.4 1850.61,-396.04 1859.28,-402.13 1861.19,-395.4"/>
</g>
<!-- [root] provider[&quot;registry.terraform.io/hashicorp/null&quot;] (close)&#45;&gt;[root] null_resource.attach_security_group (expand) -->
<g id="edge52" class="edge">
<title>[root] provider[&quot;registry.terraform.io/hashicorp/null&quot;] (close)&#45;&gt;[root] null_resource.attach_security_group (expand)</title>
<path fill="none" stroke="black" d="M2038.24,-431.7C2038.57,-423.98 2038.97,-414.71 2039.34,-406.11"/>
<polygon fill="black" stroke="black" points="2042.84,-406.25 2039.77,-396.1 2035.84,-405.95 2042.84,-406.25"/>
</g>
<!-- [root] provider[&quot;registry.terraform.io/hashicorp/null&quot;] (close)&#45;&gt;[root] null_resource.ingress_authorization (expand) -->
<g id="edge53" class="edge">
<title>[root] provider[&quot;registry.terraform.io/hashicorp/null&quot;] (close)&#45;&gt;[root] null_resource.ingress_authorization (expand)</title>
<path fill="none" stroke="black" d="M2107.04,-432.5C2150.12,-422.28 2205.66,-409.1 2250.84,-398.38"/>
<polygon fill="black" stroke="black" points="2251.69,-401.77 2260.61,-396.06 2250.07,-394.96 2251.69,-401.77"/>
</g>
<!-- [root] root -->
<g id="node34" class="node">
<title>[root] root</title>
<ellipse fill="none" stroke="black" cx="1501.5" cy="-522" rx="58.49" ry="18"/>
<text text-anchor="middle" x="1501.5" y="-518.3" font-family="Times,serif" font-size="14.00">[root] root</text>
</g>
<!-- [root] root&#45;&gt;[root] meta.count&#45;boundary (EachMode fixup) -->
<g id="edge54" class="edge">
<title>[root] root&#45;&gt;[root] meta.count&#45;boundary (EachMode fixup)</title>
<path fill="none" stroke="black" d="M1501.5,-503.7C1501.5,-495.98 1501.5,-486.71 1501.5,-478.11"/>
<polygon fill="black" stroke="black" points="1505,-478.1 1501.5,-468.1 1498,-478.1 1505,-478.1"/>
</g>
<!-- [root] root&#45;&gt;[root] provider[&quot;registry.terraform.io/hashicorp/aws&quot;] (close) -->
<g id="edge55" class="edge">
<title>[root] root&#45;&gt;[root] provider[&quot;registry.terraform.io/hashicorp/aws&quot;] (close)</title>
<path fill="none" stroke="black" d="M1448.44,-514.1C1366.35,-503.42 1206.18,-482.58 1092.4,-467.77"/>
<polygon fill="black" stroke="black" points="1092.59,-464.27 1082.22,-466.45 1091.69,-471.21 1092.59,-464.27"/>
</g>
<!-- [root] root&#45;&gt;[root] provider[&quot;registry.terraform.io/hashicorp/null&quot;] (close) -->
<g id="edge56" class="edge">
<title>[root] root&#45;&gt;[root] provider[&quot;registry.terraform.io/hashicorp/null&quot;] (close)</title>
<path fill="none" stroke="black" d="M1554.36,-514.1C1636.08,-503.42 1795.47,-482.61 1908.82,-467.81"/>
<polygon fill="black" stroke="black" points="1909.49,-471.25 1918.95,-466.48 1908.58,-464.31 1909.49,-471.25"/>
</g>
</g>
</svg>
